[
	{
		"image": "https://www.pngplay.com/wp-content/uploads/2/Dress-Shirt-PNG-Photo-Image.png",
		"name": "Baju Pendek",
		"price": "100.000",
		"storeName": "Jolie",
		"id": 1,
		"storeId": 1,
		"desc" : "Lorem Ipsum has been the industry's standard dummy text ever since the 1500s, when an unknown printer took a galley of type and scrambled it to make a type specimen book. It has survived not only five centuries, but also the leap into electronic typesetting, remaining essentially unchanged."
	},
	{
		"image": "https://www.pngplay.com/wp-content/uploads/8/Trouser-Free-PNG.png",
		"name": "Celana Panjang",
		"price": "240.000",
		"storeName": "Sakola",
		"id": 2,
		"storeId": 2,
		"desc" : "Lorem Ipsum has been the industry's standard dummy text ever since the 1500s, when an unknown printer took a galley of type and scrambled it to make a type specimen book. It has survived not only five centuries, but also the leap into electronic typesetting, remaining essentially unchanged."
	},
	{
		"image": "https://www.pngplay.com/wp-content/uploads/3/Jacket-Download-Free-PNG.png",
		"name": "Jaket",
		"price": "350.000",
		"storeName": "Codean",
		"id": 3,
		"storeId": 3,
		"desc" : "Lorem Ipsum has been the industry's standard dummy text ever since the 1500s, when an unknown printer took a galley of type and scrambled it to make a type specimen book. It has survived not only five centuries, but also the leap into electronic typesetting, remaining essentially unchanged."
	},
	{
		"image": "https://www.pngplay.com/wp-content/uploads/12/Half-T-Shirt-Singlet-Transparent-Free-PNG.png",
		"name": "Singlet",
		"price": "70.000",
		"storeName": "Bazar",
		"id": 4,
		"storeId": 4,
		"desc" : "Lorem Ipsum has been the industry's standard dummy text ever since the 1500s, when an unknown printer took a galley of type and scrambled it to make a type specimen book. It has survived not only five centuries, but also the leap into electronic typesetting, remaining essentially unchanged."
	},
	{
		"image": "https://parspng.com/wp-content/uploads/2023/02/shoespng.parspng.com-6.png",
		"name": "Sepatu",
		"price": "550.000",
		"storeName": "Galaxy",
		"id": 5,
		"storeId": 5,
		"desc" : "Lorem Ipsum has been the industry's standard dummy text ever since the 1500s, when an unknown printer took a galley of type and scrambled it to make a type specimen book. It has survived not only five centuries, but also the leap into electronic typesetting, remaining essentially unchanged."
	},
	{
		"image": "https://hikenrun.com/cdn/shop/products/ginee_20211027154743377_6625758395.png",
		"name": "Celana Pendek",
		"price": "50.000",
		"storeName": "Mega",
		"id": 6,
		"storeId": 6,
		"desc" : "Lorem Ipsum has been the industry's standard dummy text ever since the 1500s, when an unknown printer took a galley of type and scrambled it to make a type specimen book. It has survived not only five centuries, but also the leap into electronic typesetting, remaining essentially unchanged."
	}
]